R for Economic Data Labs
…
```r
# Loading packages
library(tidyverse)
library(readxl)

# Loading and cleaning the data
*read_excel("mpd2020.xlsx", sheet = 4, skip = 1)
```
]
 
.panel2-chunk_1-auto[

```
# A tibble: 773 x 170
    year   AFG   AGO   ALB   ARE   ARG   ARM   AUS   AUT   AZE   BDI   BEL   BEN
   <dbl> <dbl> <dbl> <dbl> <dbl> <dbl> <dbl> <dbl> <dbl> <dbl> <dbl> <dbl> <dbl>
 1     1    NA    NA    NA    NA    NA    NA    NA    NA    NA    NA   956    NA
 2   730    NA    NA    NA    NA    NA    NA    NA    NA    NA    NA    NA    NA
 3  1000    NA    NA    NA    NA    NA    NA    NA    NA    NA    NA    NA    NA
 4  1090    NA    NA    NA    NA    NA    NA    NA    NA    NA    NA    NA    NA
 5  1120    NA    NA    NA    NA    NA    NA    NA    NA    NA    NA    NA    NA
 6    NA    NA    NA    NA    NA    NA    NA    NA    NA    NA    NA    NA    NA
 7  1252    NA    NA    NA    NA    NA    NA    NA    NA    NA    NA    NA    NA
 8  1253    NA    NA    NA    NA    NA    NA    NA    NA    NA    NA    NA    NA
 9  1254    NA    NA    NA    NA    NA    NA    NA    NA    NA    NA    NA    NA
10  1255    NA    NA    NA    NA    NA    NA    NA    NA    NA    NA    NA    NA
# … with 763 more rows, and 157 more variables: BFA <dbl>, BGD <dbl>,
#   BGR <dbl>, BHR <dbl>, BIH <dbl>, BLR <dbl>, BOL <dbl>, BRA <dbl>,
#   BRB <dbl>, BWA <dbl>, CAF <dbl>, CAN <dbl>, CHE <dbl>, CHL <dbl>,
#   CHN <dbl>, CIV <dbl>, CMR <dbl>, COD <dbl>, COG <dbl>, COL <dbl>,
#   COM <dbl>, CPV <dbl>, CRI <dbl>, CSK <dbl>, CUB <dbl>, CYP <dbl>,
#   CZE <dbl>, DEU <dbl>, DJI <dbl>, DMA <dbl>, DNK <dbl>, DOM <dbl>,
#   DZA <dbl>, ECU <dbl>, EGY <dbl>, ESP <dbl>, EST <dbl>, ETH <dbl>,
#   FIN <dbl>, FRA <dbl>, GAB <dbl>, GBR <dbl>, GEO <dbl>, GHA <dbl>,
#   GIN <dbl>, GMB <dbl>, GNB <dbl>, GNQ <dbl>, GRC <dbl>, GTM <dbl>,
…
```r
# Loading packages
library(tidyverse)
library(readxl)

# Loading and cleaning the data
read_excel("mpd2020.xlsx", sheet = 4, skip = 1) %>%
* dplyr::select(year, GBR)
```
]
 
.panel2-chunk_1-auto[

```
# A tibble: 773 x 2
    year   GBR
   <dbl> <dbl>
 1     1    NA
 2   730    NA
 3  1000  1151
 4  1090    NA
 5  1120    NA
 6    NA    NA
 7  1252  1320
 8  1253  1328
 9  1254  1317
10  1255  1285
# … with 763 more rows
```
…
# Loading and cleaning the data
read_excel("mpd2020.xlsx", sheet = 4, skip = 1) %>%
  dplyr::select(year, GBR) %>%
* filter(year >= 1400)
```
]
 
.panel2-chunk_1-auto[

```
# A tibble: 619 x 2
    year   GBR
   <dbl> <dbl>
 1  1400  1717
 2  1401  1696
 3  1402  1742
 4  1403  1770
 5  1404  1801
 6  1405  1805
 7  1406  1674
 8  1407  1677
 9  1408  1552
10  1409  1607
# … with 609 more rows
```
…
# Loading and cleaning the data
read_excel("mpd2020.xlsx", sheet = 4, skip = 1) %>%
  dplyr::select(year, GBR) %>%
  filter(year >= 1400) %>%
* rename(gdppc = GBR)
```
]
 
.panel2-chunk_1-auto[

```
# A tibble: 619 x 2
    year gdppc
   <dbl> <dbl>
 1  1400  1717
 2  1401  1696
 3  1402  1742
 4  1403  1770
 5  1404  1801
 6  1405  1805
 7  1406  1674
 8  1407  1677
 9  1408  1552
10  1409  1607
# … with 609 more rows
```
…
